Linear Regression Application
…
Load necessary packages

suppressPackageStartupMessages({
  library(tidyverse)
  library(tidymodels)
  library(hrbrthemes)
})
theme_set(theme_ipsum_es(axis_title_size = 11 , axis_title_just = "c") + theme(axis.line = element_line(color ="black")))

The data

penguins_rawdata <- palmerpenguins::penguins
penguins_rawdata

# A tibble: 344 × 8
   species island    bill_length_mm bill_depth_mm flipper_length_mm body_mass_g
   <fct>   <fct>              <dbl>         <dbl>             <int>       <int>
 1 Adelie  Torgersen           39.1          18.7               181        3750
 2 Adelie  Torgersen           39.5          17.4               186        3800
 3 Adelie  Torgersen           40.3          18                 195        3250
 4 Adelie  Torgersen           NA            NA                  NA          NA
 5 Adelie  Torgersen           36.7          19.3               193        3450
 6 Adelie  Torgersen           39.3          20.6               190        3650
 7 Adelie  Torgersen           38.9          17.8               181        3625
 8 Adelie  Torgersen           39.2          19.6               195        4675
 9 Adelie  Torgersen           34.1          18.1               193        3475
10 Adelie  Torgersen           42            20.2               190        4250
# ℹ 334 more rows
# ℹ 2 more variables: sex <fct>, year <int>
…
Data Cleaning

removing NA values

transforming body_mass_g to body_mass_kg

assigning results to a new data frame

penguins_rawdata %>% 
  na.omit() %>% 
  mutate(body_mass_kg = body_mass_g / 1000) %>%
  select(-body_mass_g) -> penguins
penguins

# A tibble: 333 × 8
   species island    bill_length_mm bill_depth_mm flipper_length_mm sex     year
   <fct>   <fct>              <dbl>         <dbl>             <int> <fct>  <int>
 1 Adelie  Torgersen           39.1          18.7               181 male    2007
 2 Adelie  Torgersen           39.5          17.4               186 female  2007
 3 Adelie  Torgersen           40.3          18                 195 female  2007
 4 Adelie  Torgersen           36.7          19.3               193 female  2007
 5 Adelie  Torgersen           39.3          20.6               190 male    2007
 6 Adelie  Torgersen           38.9          17.8               181 female  2007
 7 Adelie  Torgersen           39.2          19.6               195 male    2007
 8 Adelie  Torgersen           41.1          17.6               182 female  2007
 9 Adelie  Torgersen           38.6          21.2               191 male    2007
10 Adelie  Torgersen           34.6          21.1               198 male    2007
# ℹ 323 more rows
# ℹ 1 more variable: body_mass_kg <dbl>
Split the Data

set.seed(25112023)
penguins_split <- penguins %>% initial_split() 
penguins_split

<Training/Testing/Total>
<249/84/333>

Extract the training and test data;

penguins_training <- training(penguins_split)
penguins_training

# A tibble: 249 × 8
   species   island   bill_length_mm bill_depth_mm flipper_length_mm sex    year
   <fct>     <fct>             <dbl>         <dbl>             <int> <fct> <int>
 1 Adelie    Biscoe             41.1          18.2               192 male   2008
 2 Adelie    Torgers…           34.6          21.1               198 male   2007
 3 Gentoo    Biscoe             53.4          15.8               219 male   2009
 4 Adelie    Biscoe             42.7          18.3               196 male   2009
 5 Chinstrap Dream              49.8          17.3               198 fema…  2009
 6 Gentoo    Biscoe             45.5          14.5               212 fema…  2009
 7 Adelie    Dream              39            18.7               185 male   2009
 8 Gentoo    Biscoe             43.6          13.9               217 fema…  2008
 9 Adelie    Dream              36            17.8               195 fema…  2009
10 Adelie    Torgers…           35.5          17.5               190 fema…  2008
# ℹ 239 more rows
# ℹ 1 more variable: body_mass_kg <dbl>

penguins_testing <- testing(penguins_split)
penguins_testing

# A tibble: 84 × 8
   species island    bill_length_mm bill_depth_mm flipper_length_mm sex     year
   <fct>   <fct>              <dbl>         <dbl>             <int> <fct>  <int>
 1 Adelie  Torgersen           40.3          18                 195 female  2007
 2 Adelie  Torgersen           39.3          20.6               190 male    2007
 3 Adelie  Torgersen           42.5          20.7               197 male    2007
 4 Adelie  Torgersen           34.4          18.4               184 female  2007
 5 Adelie  Biscoe              40.5          17.9               187 female  2007
 6 Adelie  Dream               40.9          18.9               184 male    2007
 7 Adelie  Dream               38.8          20                 190 male    2007
 8 Adelie  Dream               36.5          18                 182 female  2007
 9 Adelie  Dream               36            18.5               186 female  2007
10 Adelie  Dream               39.6          18.8               190 male    2007
# ℹ 74 more rows
# ℹ 1 more variable: body_mass_kg <dbl>
…
# A tibble: 1 × 3
  .metric .estimator .estimate
  <chr>   <chr>          <dbl>
1 rmse    standard       0.281

To see the actual values of dependent varaible and our estimation together we use augment function and select the two

penguins_workflow %>% 
  fit(data = penguins_training) %>% 
  extract_fit_engine() %>% 
  augment(data = penguins_training) %>% 
  select(body_mass_kg, .fitted)

# A tibble: 249 × 2
   body_mass_kg .fitted
          <dbl>   <dbl>
 1         4.05    3.98
 2         4.4     4.16
 3         5.5     5.47
 4         4.08    4.08
 5         3.68    3.53
 6         4.75    4.73
 7         3.65    3.87
 8         4.9     4.72
 9         3.45    3.52
10         3.7     3.41
# ℹ 239 more rows
…
