Linear Regression Application
…
The Data

The data contains size measurements for three penguin species that lives on three islands.

penguins_rawdata <- palmerpenguins::penguins 

The Data

The data contains size measurements for three penguin species that lives on three islands.

penguins_rawdata <- palmerpenguins::penguins 
penguins_rawdata 

# A tibble: 344 × 8
   species island    bill_length_mm bill_depth_mm flipper_length_mm body_mass_g
   <fct>   <fct>              <dbl>         <dbl>             <int>       <int>
 1 Adelie  Torgersen           39.1          18.7               181        3750
 2 Adelie  Torgersen           39.5          17.4               186        3800
 3 Adelie  Torgersen           40.3          18                 195        3250
 4 Adelie  Torgersen           NA            NA                  NA          NA
 5 Adelie  Torgersen           36.7          19.3               193        3450
 6 Adelie  Torgersen           39.3          20.6               190        3650
 7 Adelie  Torgersen           38.9          17.8               181        3625
 8 Adelie  Torgersen           39.2          19.6               195        4675
 9 Adelie  Torgersen           34.1          18.1               193        3475
10 Adelie  Torgersen           42            20.2               190        4250
   sex     year
   <fct>  <int>
 1 male    2007
 2 female  2007
 3 female  2007
 4 <NA>    2007
 5 female  2007
 6 male    2007
 7 female  2007
 8 male    2007
 9 <NA>    2007
10 <NA>    2007
# ℹ 334 more rows
…
Data Cleaning

removing NA values

transforming body_mass_g to body_mass_kg

assigning results to a new data frame

penguins_rawdata %>% 
  na.omit() %>% 
  mutate(body_mass_kg = body_mass_g / 1000) %>%
  select(-body_mass_g) -> penguins
penguins

# A tibble: 333 × 8
   species island    bill_length_mm bill_depth_mm flipper_length_mm sex     year
   <fct>   <fct>              <dbl>         <dbl>             <int> <fct>  <int>
 1 Adelie  Torgersen           39.1          18.7               181 male    2007
 2 Adelie  Torgersen           39.5          17.4               186 female  2007
 3 Adelie  Torgersen           40.3          18                 195 female  2007
 4 Adelie  Torgersen           36.7          19.3               193 female  2007
 5 Adelie  Torgersen           39.3          20.6               190 male    2007
 6 Adelie  Torgersen           38.9          17.8               181 female  2007
 7 Adelie  Torgersen           39.2          19.6               195 male    2007
 8 Adelie  Torgersen           41.1          17.6               182 female  2007
 9 Adelie  Torgersen           38.6          21.2               191 male    2007
10 Adelie  Torgersen           34.6          21.1               198 male    2007
   body_mass_kg
          <dbl>
 1         3.75
 2         3.8 
 3         3.25
 4         3.45
 5         3.65
 6         3.62
 7         4.68
 8         3.2 
 9         3.8 
10         4.4 
# ℹ 323 more rows
…
Initial split:

set.seed(25112023)
penguins_split <- penguins %>% initial_split() 
penguins_split

<Training/Testing/Total>
<249/84/333>

Extract the training and the test data:

penguins_training <- training(penguins_split)
penguins_training

# A tibble: 249 × 8
   species   island    bill_length_mm bill_depth_mm flipper_length_mm sex   
   <fct>     <fct>              <dbl>         <dbl>             <int> <fct> 
 1 Adelie    Biscoe              41.1          18.2               192 male  
 2 Adelie    Torgersen           34.6          21.1               198 male  
 3 Gentoo    Biscoe              53.4          15.8               219 male  
 4 Adelie    Biscoe              42.7          18.3               196 male  
 5 Chinstrap Dream               49.8          17.3               198 female
 6 Gentoo    Biscoe              45.5          14.5               212 female
 7 Adelie    Dream               39            18.7               185 male  
 8 Gentoo    Biscoe              43.6          13.9               217 female
 9 Adelie    Dream               36            17.8               195 female
10 Adelie    Torgersen           35.5          17.5               190 female
    year body_mass_kg
   <int>        <dbl>
 1  2008         4.05
 2  2007         4.4 
 3  2009         5.5 
 4  2009         4.08
 5  2009         3.68
 6  2009         4.75
 7  2009         3.65
 8  2008         4.9 
 9  2009         3.45
10  2008         3.7 
# ℹ 239 more rows

penguins_testing <- testing(penguins_split)
penguins_testing

# A tibble: 84 × 8
   species island    bill_length_mm bill_depth_mm flipper_length_mm sex     year
   <fct>   <fct>              <dbl>         <dbl>             <int> <fct>  <int>
 1 Adelie  Torgersen           40.3          18                 195 female  2007
 2 Adelie  Torgersen           39.3          20.6               190 male    2007
 3 Adelie  Torgersen           42.5          20.7               197 male    2007
 4 Adelie  Torgersen           34.4          18.4               184 female  2007
 5 Adelie  Biscoe              40.5          17.9               187 female  2007
 6 Adelie  Dream               40.9          18.9               184 male    2007
 7 Adelie  Dream               38.8          20                 190 male    2007
 8 Adelie  Dream               36.5          18                 182 female  2007
 9 Adelie  Dream               36            18.5               186 female  2007
10 Adelie  Dream               39.6          18.8               190 male    2007
   body_mass_kg
          <dbl>
 1         3.25
 2         3.65
 3         4.5 
 4         3.32
 5         3.2 
 6         3.9 
 7         3.95
 8         3.15
 9         3.1 
10         4.6 
# ℹ 74 more rows
…
Residual standard error: 0.2849 on 242 degrees of freedom
Multiple R-squared:  0.8711,    Adjusted R-squared:  0.8679 
F-statistic: 272.6 on 6 and 242 DF,  p-value: < 2.2e-16

Fitted vs Actual Values & RMSE

penguins_workflow %>% 
  fit(data = penguins_training) %>% 
  extract_fit_engine() %>% 
  augment(data = penguins_training) %>% 
  select(body_mass_kg, .fitted, .std.resid)

# A tibble: 249 × 3
   body_mass_kg .fitted .std.resid
          <dbl>   <dbl>      <dbl>
 1         4.05    3.98    0.261  
 2         4.4     4.16    0.895  
 3         5.5     5.47    0.112  
 4         4.08    4.08   -0.00574
 5         3.68    3.53    0.506  
 6         4.75    4.73    0.0597 
 7         3.65    3.87   -0.774  
 8         4.9     4.72    0.638  
 9         3.45    3.52   -0.240  
10         3.7     3.41    1.03   
# ℹ 239 more rows
…
# A tibble: 2 × 4
  .metric .estimator .estimate .config             
  <chr>   <chr>          <dbl> <chr>               
1 rmse    standard       0.298 Preprocessor1_Model1
2 rsq     standard       0.886 Preprocessor1_Model1

RMSE and RSQ are very close to training data, which is what we want to achive

What about the predictions and actual values?

penguins_workflow %>% 
  last_fit(penguins_split) %>% 
  collect_predictions()

# A tibble: 84 × 5
   id               .pred  .row body_mass_kg .config             
   <chr>            <dbl> <int>        <dbl> <chr>               
 1 train/test split  3.62     3         3.25 Preprocessor1_Model1
 2 train/test split  4.10     5         3.65 Preprocessor1_Model1
 3 train/test split  4.28    13         4.5  Preprocessor1_Model1
 4 train/test split  3.37    14         3.32 Preprocessor1_Model1
 5 train/test split  3.50    23         3.2  Preprocessor1_Model1
 6 train/test split  3.91    29         3.9  Preprocessor1_Model1
 7 train/test split  4.04    32         3.95 Preprocessor1_Model1
 8 train/test split  3.35    36         3.15 Preprocessor1_Model1
 9 train/test split  3.44    38         3.1  Preprocessor1_Model1
10 train/test split  3.96    41         4.6  Preprocessor1_Model1
# ℹ 74 more rows
…
